VAST Challenge 2021 Mini-Challenge 3: Methodology and Exploratory Data Analysis
…
p

Filtering for only Number of Tweets and Number of Hashtags by clicking on the legend, we see that there are two authors, KronosQuoth and Clevvah4Evah, who had posted huge number of tweets and hashtags. Clevvah4Evah sent an average of 4.7 tweets per minute with an average of 2 hashtags per text message. While Clevvah4Evah sent an average of 0.6 tweets per minute with an average of 3 hashtags per text message. From tooltip, we find that these two authors do not have any mentions or RTs, hence they look very suspicious and further exploration will be done to check if they are indeed authors posting authentic text or just spam bots.

comb1 %>% filter(author == "KronosQuoth") %>% select(Text)

# A tibble: 1,265 x 1
   Text                                                               
   <chr>                                                              
 1 Success is walking from failure to failure with no loss of enthusi~
 2 A person who never made a mistake never tried anything new.  #Kron~
 3 The only person you are destined to become is the person you decid~
 4 Knowledge is being aware of what you can do. Wisdom is knowing whe~
 5 The meaning of life is to find your gift. The purpose of life is t~
 6 If you're going through hell keep going.  #POKRally #HI            
 7 You miss 100% of the shots you dont take.  #KronosStar #POKRally   
 8 You may only succeed if you desire succeeding; you may only fail i~
 9 I didnt fail the test. I just found 100 ways to do it wrong.  #Kro~
10 To accomplish great things, we must not only act, but also dream, ~
# ... with 1,255 more rows

Tweets by KronosQuoth are composed of pseudo-sayings with several duplicated messages. They are mostly appended with #POKRally and #HI but the content is unrelated to the rally.

comb1 %>% filter(author == "Clevvah4Evah") %>% select(Text)

# A tibble: 153 x 1
   Text                                                               
   <chr>                                                              
 1 I want a job 80% mental 30% fiscal #POK #Rally #Grammar            
 2 Youre the penultimate girlfriend! #POK #Rally #Grammar             
 3 You got low self coincidence #POK #Rally #Grammar                  
 4 I would like to return the complement #POK #Rally #Grammar         
 5 GAStech said they would give me a bonus! #POK #Rally #Grammar      
 6 GAStech said they would give me a bonus! #POK #Rally #Grammar      
 7 What's the diff between would of and would've? #POK #Rally #Grammar
 8 The rally has peaked my interest! #POK #Rally #Grammar             
 9 You got low self coincidence #POK #Rally #Grammar                  
10 Dont loose your way in the dark going home #POK #Rally #Grammar    
# ... with 143 more rows
…
